…
# 库函数 查询
?sqlquery

# 方法测试
# > sqlquery("select database()")
# # A tibble: 1 × 1
#  `database()`
#  <chr>       
# 1 ctp2        
# >

# 查询数据表
# > sqlquery("show tables")
# # A tibble: 202 × 1
#    Tables_in_ctp2   
#    <chr>            
#  1 data             
#  2 t_ao2501_20241217
#  3 t_ao2501_20241218
#  4 t_ao2501_20241219
#  5 t_ao2501_20241220
#  6 t_ao2505_20241217
#  7 t_ao2505_20241218
#  8 t_ao2505_20241219
#  9 t_ao2505_20241220
# 10 t_ao2601_20251112
# # ℹ 192 more rows
# # ℹ Use `print(n = ...)` to see more rows
# > 
…
# 数据查询 : 
# 注意 ifnull(Volume - lag(Volume) over(), 0) Vol <==> ifnull(Volume - lag(Volume) over(order by Id), 0) 
# 因为 Id 是主键，所以 order by Id 与 数据库的默认结果顺序是一样的！
# 窗口函数的语法 expression over(XXX) 表示 在结果集合XXX上执行子执行表达式，XXX 通常式 把  对 select直接结果进行变换的 操作指令，
# 如 排序 order by, 分组 partition by 等操作, 框架 rows(索引范围)/range(值范围) 等：
#“rows between 9 preceding and current row ”近期10条数据（包含自己），即范围 {x[t-9], x[t-8], ..., x[t-1], x[t]}
#“range between 9 preceding and current row ”前面的x[i]与当前自己x[t]差差值小于9的范围区间：即 |x[t] - x[i]| ≤ 9
# Volume - lag(Volume) over() 表示在 查询结果上 直接运行 表达式 “Volume - lag(Volume)”
# Volume - lag(Volume) over(order by Id) 表示在 查询结果上 再去构建一个“order by Id”的子排序结果集，并在此子排序结果上 执行表达式“Volume - lag(Volume)”
#
sqlquery("select Id, LastPrice, Volume,  coalesce(Volume - lag(Volume) over(), 0) Vol , UpdateTime from t_ao2501_20241217")

# # A tibble: 11,521 × 5
#       Id LastPrice Volume   Vol UpdateTime
#    <int>     <dbl>  <int> <dbl> <chr>     
#  1     1      5179      0     0 19:55:32  
#  2     2      5179    105   105 20:59:01  
#  3     3      5172    127    22 21:00:01  
#  4     4      5174    147    20 21:00:01  
#  5     5      5177    163    16 21:00:02  
#  6     6      5177    166     3 21:00:02  
#  7     7      5177    192    26 21:00:03  
#  8     8      5178    204    12 21:00:03  
#  9     9      5178    234    30 21:00:04  
# 10    10      5178    251    17 21:00:04  
# # ℹ 11,511 more rows
# # ℹ Use `print(n = ...)` to see more rows
# >

# 近期10项的移动过平均
# SQL 移动平均查询，使用窗口函数计算价格的平均值。
# 对于每一行数据，计算当前行及其前面9行的LastPrice平均值
# 这是一个10期简单移动平均(SMA)
# 业务意义：
# 趋势识别 - 平滑价格波动，显示主要趋势方向
# 买卖信号 - 价格上穿/下穿均线可能产生交易信号
# 支撑阻力 - 移动平均线常作为动态支撑阻力位
# 噪声过滤 - 过滤短期价格波动，关注中长期走势
#
sqlquery("select Id, LastPrice, Volume,  avg(LastPrice) over(rows between 9 preceding and current row) avg , UpdateTime from t_ao2501_20241217")

# A tibble: 11,521 × 5
#       Id LastPrice Volume   avg UpdateTime
#    <int>     <dbl>  <int> <dbl> <chr>     
#  1     1      5179      0 5179  19:55:32  
#  2     2      5179    105 5179  20:59:01  
#  3     3      5172    127 5177. 21:00:01  
#  4     4      5174    147 5176  21:00:01  
#  5     5      5177    163 5176. 21:00:02  
#  6     6      5177    166 5176. 21:00:02  
#  7     7      5177    192 5176. 21:00:03  
#  8     8      5178    204 5177. 21:00:03  
#  9     9      5178    234 5177. 21:00:04  
# 10    10      5178    251 5177. 21:00:04  
# # ℹ 11,511 more rows
# # ℹ Use `print(n = ...)` to see more rows


# 对于每一行数据，计算在当前价格±9的价格区间内有多少条记录
# LastPrice: 100, 102, 105, 108, 110, 115, 120
# 对于 LastPrice = 110 的记录：计算价格在 [101, 119] 区间内（110±9）的记录数量
# 业务意义：
# 识别价格密集区 - Num值大的区域表示特定价格区间的交易活跃
# 支撑阻力位分析 - 高Num值可能表示特定价格区间的重要的价格水平
# 市场流动性分析 - 观察在不同价格区间的交易集中程度
#
sqlquery("select Id, LastPrice, Volume,  count(LastPrice) over(order by LastPrice range between 9 preceding and current row) Num , 
  UpdateTime from t_ao2501_20241217") -> dfm

# # A tibble: 11,521 × 5
#       Id LastPrice Volume   Num UpdateTime
#    <int>     <dbl>  <int> <dbl> <chr>     
#  1     3      5172    127     1 21:00:01  
#  2     4      5174    147     2 21:00:01  
#  3     5      5177    163     5 21:00:02  
#  4     6      5177    166     5 21:00:02  
#  5     7      5177    192     5 21:00:03  
#  6     8      5178    204    14 21:00:03  
#  7     9      5178    234    14 21:00:04  
#  8    10      5178    251    14 21:00:04  
#  9    11      5178    268    14 21:00:05  
# 10    13      5178    274    14 21:00:06  
# # ℹ 11,511 more rows
# # ℹ Use `print(n = ...)` to see more rows
# > 
…
